<svg xmlns="http://www.w3.org/2000/svg" viewBox="0 0 254 212.75">
  <defs>
    <style>
      .cls-1 {
        fill: #5cbbcc;
      }

      .cls-1, .cls-2 {
        fill-rule: evenodd;
      }

      .cls-2, .cls-4 {
        fill: #fff;
      }

      .cls-3 {
        fill: #ff7f29;
      }
    </style>
  </defs>
  <g id="_3" data-name="3" transform="translate(-6 -24)">
    <g id="_2361039137296">
      <path id="Path_133" data-name="Path 133" class="cls-1" d="M124,91c4-2,10-3,14-4,29-8,64-8,94,0,4,1,10,2,13,4,2,13,1,32-1,45-4,26-13,49-31,66l-3,3c-1,1-2,1-3,2-4,4-19,14-22,14-4,0-19-11-22-14-5-4-12-10-15-15a80.6,80.6,0,0,1-12-18C126,151,121,115,124,91Zm-15,9c0,21,1,36,6,56a60.329,60.329,0,0,0,6,19c1,1,1,3,2,4,2,6,8,15,12,20l4,5,11,11,3,3a44.4,44.4,0,0,0,11,8,5.2,5.2,0,0,0,4,2,13.8,13.8,0,0,0,4,3,3.1,3.1,0,0,1,2,1c1,0,1,1,2,1,11,5,7,5,17,0l16-9a174.1,174.1,0,0,0,14-12l6-6,6-7c5-7,10-15,13-24,8-18,12-44,12-64V88c0-2-1-4-1-6,0-3,0-2-3-3-6-2-13-4-19-6-14-3-31-6-45-6-24,0-36,0-59,6-7,2-13,4-20,6-2,1-2,0-3,3v6C110,92,109,96,109,100Z"/>
      <path id="Path_134" data-name="Path 134" class="cls-1" d="M143,93c-3,1-8,2-11,3-3,23,1,55,10,76,3,7,6,10,10,16,3,5,9,10,13,14,4,3,17,13,20,13,2,0,16-10,19-13,1-1,2-2,3-2,1-1,1-2,3-3,16-15,23-36,27-59,1-12,2-29,1-42-3-1-8-2-12-3C200,86,169,86,143,93Z"/>
      <path id="Path_135" data-name="Path 135" class="cls-2" d="M181,152a4.3,4.3,0,0,1,4-4c2,0,3,2,3,4,0,1-1,3-2,3v7c0,1-2,1-3,0v-7C182,155,181,153,181,152Zm-8-25a12.675,12.675,0,0,1,4-9,3.674,3.674,0,0,1,3-1c4-2,9-1,13,2l1,1a14.453,14.453,0,0,1,2,7v8H173Zm-7,2v6c-1,0-2,1-3,1-2,1-4,4-4,6v29c1,2,4,4,6,4h39c3,0,7-3,7-7V142c0-3-3-6-8-7,0-2,1-8,0-11v-1l-1-3v-1c-1-2-3-5-5-6l-1-1c-3-2-7-4-10-4-4,0-6,0-10,2-3,2-6,4-7,7C166,121,166,124,166,129Z"/>
    </g>
    <g id="_2361039136464">
      <circle id="Ellipse_13" data-name="Ellipse 13" class="cls-3" cx="30" cy="30" r="30" transform="translate(6 24)"/>
      <path id="Path_136" data-name="Path 136" class="cls-4" d="M28,61l5-1c0,1,1,2,1,3a3.674,3.674,0,0,0,3,1,3.674,3.674,0,0,0,3-1c0-1,1-2,1-4a3.536,3.536,0,0,0-4-4H35V51c2,0,3,0,4-1,0-1,1-2,1-3s-1-1-1-2c-1,0-1-1-2-1s-2,1-3,1c0,1-1,2-1,3l-5-1c1-2,1-3,2-4,0-1,1-2,3-2,1-1,2-1,4-1s5,1,6,2c1,2,2,3,2,5s-1,4-4,6a5.2,5.2,0,0,1,4,2c1,1,1,3,1,5s-1,4-2,6c-2,2-4,2-7,2s-5,0-6-2A5.5,5.5,0,0,1,28,61Z"/>
    </g>
  </g>
</svg>
