<svg xmlns="http://www.w3.org/2000/svg" viewBox="0 0 565.433 90.006">
  <defs>
    <style>
      .cls-1 {
        fill: #f60;
      }

      .cls-2 {
        fill: #00d4d4;
      }
    </style>
  </defs>
  <g id="Paymentku" transform="translate(-506 -1306)">
    <path id="Path_2394" data-name="Path 2394" class="cls-1" d="M506,1397v-86h38.319c17.823,0,26.289,8.02,26.289,24.061q0,26.066-36.091,32.081l-2.228-14.258c14.7-2.673,21.833-8.466,21.833-17.378q0-10.694-10.694-10.694H521.595V1397Z" transform="translate(0 -2.772)"/>
    <path id="_1" data-name="1" class="cls-1" d="M650,1405.666c0-12.476,8.911-19.16,27.18-19.16a63.628,63.628,0,0,1,12.922,1.337v-4.9c0-5.347-4.01-8.466-12.031-8.466-7.129,0-14.7,1.337-23.17,3.119v-12.476a89.9,89.9,0,0,1,23.17-3.119c18.714,0,28.071,7.129,28.071,20.942v42.329h-9.357l-5.792-5.792a29.388,29.388,0,0,1-17.823,5.792C657.575,1425.271,650,1418.588,650,1405.666Zm40.1-7.129a117.744,117.744,0,0,0-12.922-.891c-7.575,0-11.585,2.673-11.585,7.575,0,5.792,3.565,8.466,9.8,8.466a22.541,22.541,0,0,0,14.7-4.9Z" transform="translate(-79.837 -31.048)"/>
    <path id="_2" data-name="2" class="cls-1" d="M810.041,1311v12.476H794V1311Zm0,22.724V1397H794v-63.271Z" transform="translate(-159.675 -2.772)"/>
    <path id="_3" data-name="3" class="cls-1" d="M849,1425.271V1362H861.03l1.782,9.357c5.792-6.238,12.476-9.357,20.5-9.357s13.367,2.673,16.486,8.466c6.238-5.793,13.367-8.466,20.051-8.466,14.7,0,21.833,8.02,21.833,24.061v39.21h-15.6v-39.656c0-7.129-3.565-10.694-9.8-10.694-4.456,0-9.357,2.228-13.367,6.238v44.112H886.874v-39.656c0-7.129-3.119-10.694-8.911-10.694-4.456,0-8.911,2.228-13.367,6.238v44.112Z" transform="translate(-190.168 -31.048)"/>
    <path id="_4" data-name="4" class="cls-1" d="M1098.853,1362c19.16,0,28.517,9.8,28.517,29.408a48.431,48.431,0,0,1-.446,8.02h-41.884c0,8.911,6.684,13.367,19.605,13.367a139.23,139.23,0,0,0,19.16-1.782v12.476c-5.792,1.337-12.476,1.782-20.5,1.782-22.724,0-34.309-10.694-34.309-32.527C1069,1372.248,1078.8,1362,1098.853,1362Zm-13.813,26.289h26.734v-.446c0-8.911-4.01-13.367-12.922-13.367C1090.387,1374.476,1085.486,1378.932,1085.041,1388.289Z" transform="translate(-312.142 -31.048)"/>
    <path id="_5" data-name="5" class="cls-1" d="M1212,1425.271V1362h12.476l1.782,9.357c6.238-6.238,12.922-9.357,20.5-9.357,15.15,0,22.724,7.575,22.724,23.17v40.1h-16.041v-40.1c0-6.684-3.565-10.248-10.248-10.248-5.347,0-10.248,2.228-15.149,6.238v44.112Z" transform="translate(-391.425 -31.048)"/>
    <path id="_6" data-name="6" class="cls-1" d="M1357,1339h12.031l2.228,10.248H1387.3v12.476h-14.258v29.408c0,5.792,2.673,8.911,7.575,8.911h6.684v12.476h-14.258c-10.694,0-16.041-5.792-16.041-16.932Z" transform="translate(-471.817 -18.296)"/>
    <path id="_7" data-name="7" class="cls-2" d="M1438,1394.223V1306h17.823v39.21l36.091-39.21h24.061l-33.418,34.309,34.755,53.914h-22.724l-24.507-41.438-14.258,14.7v26.734Z" transform="translate(-516.725 0)"/>
    <path id="_8" data-name="8" class="cls-2" d="M1618,1306h17.823v47.677c0,7.575,0,12.476.446,14.7a16.659,16.659,0,0,0,5.347,8.911c3.119,2.228,6.684,3.119,11.585,3.119,5.347,0,8.911-.891,11.585-3.119a10.4,10.4,0,0,0,4.456-7.575,108.629,108.629,0,0,0,.891-15.15V1306h17.823v46.34c0,10.694-.446,18.269-1.337,22.279-.891,4.456-2.673,8.466-5.347,11.14-2.673,3.119-6.238,5.347-10.248,7.575-4.456,1.782-10.248,2.673-16.932,2.673-8.466,0-14.7-1.337-19.16-3.119a22.94,22.94,0,0,1-10.248-7.574,23.686,23.686,0,0,1-5.347-9.8c-.891-4.9-1.337-12.476-1.337-22.278Z" transform="translate(-616.522 0)"/>
  </g>
</svg>
