<svg xmlns="http://www.w3.org/2000/svg" viewBox="0 0 136.149 146.15">
  <defs>
    <style>
      .cls-1 {
        fill: #5cbbcc;
      }

      .cls-2 {
        fill: #ffb100;
      }

      .cls-3 {
        fill: #3470a1;
      }

      .cls-4 {
        fill: rgba(51,51,51,0.87);
      }

      .cls-5 {
        fill: #1b3f5c;
      }

      .cls-6 {
        fill: #fff;
      }

      .cls-7 {
        fill: #4a7ea8;
      }

      .cls-8 {
        fill: #f60;
      }

      .cls-9 {
        fill: #00d4d4;
      }
    </style>
  </defs>
  <g id="Pembayaran_via_Payment_Point" data-name="Pembayaran via Payment Point" transform="translate(-175.596 -2179.966)">
    <g id="pembayaran_via_merchant" data-name="pembayaran via merchant" transform="translate(175.596 2179.966)">
      <path id="Path_105" data-name="Path 105" class="cls-1" d="M81.516,114.932v32.216H39.086V114.932H81.516ZM75.23,73.287c-.786,0,0,0,0-.786h0v-.786H88.588v7.072l.786,12.572c0,3.929,0,4.715-1.572,7.072-2.357,2.357-6.286,3.929-9.429,1.572-.786,0-2.357-.786-2.357-1.572-1.572-2.357-1.572-4.715-1.572-7.858C74.445,89.787,75.23,74.858,75.23,73.287Zm35.359-1.572V72.5l1.572,7.858c.786,2.357.786,5.5,1.572,8.643.786,2.357,1.572,5.5,0,7.858-2.357,5.5-9.429,5.5-12.572,1.572-1.572-2.357-1.572-4.715-1.572-7.858C98.8,84.287,98.8,78,98.017,71.715Zm-58.146,0H65.016c0,6.286-.786,12.572-.786,18.858-.786,3.929,0,7.858-4.715,10.215-.786.786-2.357.786-3.929.786-3.143-.786-4.715-2.357-5.5-4.715-1.572-2.357-.786-5.5,0-7.858,0-3.143.786-5.5,1.572-8.643C51.658,78,52.444,74.858,52.444,71.715Zm67.575,0H132.59c.786,1.572,5.5,18.072,6.286,20.43,2.357,7.858-8.643,12.572-13.358,6.286a7.084,7.084,0,0,1-.786-3.929C124.733,92.145,120.8,76.43,120.018,71.715Zm-89.576,0H43.015a28.247,28.247,0,0,1-1.572,8.643c0,1.572-2.357,11.786-2.357,13.358,0,2.357-1.572,4.715-3.929,6.286-3.929,1.572-8.643,0-10.215-3.929a3.569,3.569,0,0,1,0-3.929c1.572-6.286,3.143-13.358,4.715-18.858C30.442,72.5,30.442,72.5,30.442,71.715Zm67.575,91.147V114.932c1.572-.786,25.93,0,26.716,0v47.931h10.215c3.143,0,5.5-1.572,5.5-4.715V96.859c.786.786,1.572,1.572,2.357,1.572h3.929c1.572-.786,3.143-2.357,3.143-3.929s0-2.357-.786-3.143L142.02,71.715c0-1.572-1.572-4.715-1.572-6.286,0-2.357.786-4.715-.786-7.072A6.716,6.716,0,0,0,134.948,56H28.085a6.716,6.716,0,0,0-4.715,2.357,24.24,24.24,0,0,0-.786,7.072c0,1.572,0,2.357-.786,3.143L15.513,88.216c-.786,1.572-2.357,4.715-1.572,6.286.786,3.929,3.929,4.715,6.286,3.929,1.572,0,1.572-.786,2.357-1.572.786,6.286,0,11.786,0,18.072V150.29c0,1.572,0,6.286.786,8.643a4.209,4.209,0,0,0,3.929,3.929H98.017Z" transform="translate(-13.727 -16.712)"/>
      <path id="Path_106" data-name="Path 106" class="cls-1" d="M28.715,6H139.506a5.957,5.957,0,0,1,3.143,1.572h0c.786.786.786,1.572.786,3.143V37.43c0,1.572,0,2.357-.786,3.143h0a5.957,5.957,0,0,1-3.143,1.572H28.715a5.957,5.957,0,0,1-3.143-1.572h0A4.082,4.082,0,0,1,24,37.43V10.715a4.082,4.082,0,0,1,1.572-3.143h0A5.957,5.957,0,0,1,28.715,6ZM139.506,7.572H28.715c-.786,0-1.572.786-2.357.786h0c0,.786-.786,1.572-.786,2.357V37.43c0,.786.786,1.572.786,2.357h0a2.887,2.887,0,0,0,2.357.786H139.506c.786,0,1.572,0,1.572-.786h0a2.887,2.887,0,0,0,.786-2.357V10.715a2.887,2.887,0,0,0-.786-2.357h0A2.743,2.743,0,0,0,139.506,7.572Z" transform="translate(-15.928 -6)"/>
      <path id="Path_107" data-name="Path 107" class="cls-1" d="M28.715,6H141.077l1.572,1.572h0c.786,0,.786.786.786,1.572.786,0,.786.786.786,1.572V37.43a2.887,2.887,0,0,1-.786,2.357,2.434,2.434,0,0,1-.786,1.572h0c-.786,0-.786.786-1.572.786H27.143a2.743,2.743,0,0,1-1.572-.786h0c-.786-.786-.786-1.572-1.572-1.572V9.143c.786-.786.786-1.572,1.572-1.572h0c0-.786.786-.786,1.572-1.572Zm110.791.786H27.143l-.786.786h-.786c0,.786,0,.786-.786,1.572V39a2.434,2.434,0,0,1,.786,1.572h.786a.77.77,0,0,0,.786.786c.786,0,.786.786,1.572.786H139.506a2.743,2.743,0,0,1,1.572-.786.77.77,0,0,0,.786-.786h0c.786,0,.786-.786.786-1.572.786,0,.786-.786.786-1.572V10.715c0-.786,0-.786-.786-1.572,0-.786,0-.786-.786-1.572h0l-.786-.786Zm0,1.572H27.929c-.786,0-.786,0-.786.786h0c-.786,0-.786,0-.786.786V39l.786.786h.786a.77.77,0,0,0,.786.786H139.506a.77.77,0,0,0,.786-.786h.786a.77.77,0,0,1,.786-.786V9.929a.77.77,0,0,0-.786-.786h0a.77.77,0,0,0-.786-.786ZM28.715,7.572H140.292c.786,0,.786,0,.786.786h.786a.77.77,0,0,0,.786.786V39a.77.77,0,0,0-.786.786l-.786.786h-.786l-.786.786H28.715c-.786,0-.786-.786-1.572-.786h-.786v-.786L25.572,39V9.143l.786-.786h0l.786-.786Z" transform="translate(-15.928 -6)"/>
      <path id="Path_108" data-name="Path 108" class="cls-2" d="M74.858,27.858l-.786-.786a.77.77,0,0,0-.786-.786A.77.77,0,0,0,72.5,25.5H70.143a.77.77,0,0,1-.786.786.77.77,0,0,1-.786.786v2.357a.77.77,0,0,1,.786.786c.786,0,.786,0,.786.786H72.5l.786-.786a.77.77,0,0,0,.786-.786C74.072,28.643,74.858,28.643,74.858,27.858Zm-3.143-3.929a5.94,5.94,0,0,1,3.143.786V20h.786l.786.786v7.072A4.082,4.082,0,0,1,74.858,31a5.957,5.957,0,0,1-3.143,1.572A4.082,4.082,0,0,1,68.572,31,4.082,4.082,0,0,1,67,27.858c0-.786.786-1.572,1.572-3.143C69.357,23.929,70.143,23.929,71.715,23.929ZM81.144,25.5h-.786c-.786,0-.786.786-1.572.786v.786a.77.77,0,0,0-.786.786c0,.786,0,.786.786,1.572v.786c.786,0,.786,0,1.572.786h1.572c.786-.786.786-.786,1.572-.786v-.786c.786-.786.786-.786.786-1.572a.77.77,0,0,0-.786-.786v-.786c-.786,0-.786-.786-1.572-.786Zm3.143,6.286h0c-.786,0-.786,0-1.572.786H81.144A4.082,4.082,0,0,1,78,31a4.082,4.082,0,0,1-1.572-3.143c0-.786.786-1.572,1.572-3.143.786-.786,1.572-.786,3.143-.786s2.357,0,3.143.786c.786,1.572,1.572,2.357,1.572,3.143v4.715H84.287Zm6.286.786c-.786,0-.786,0-.786-.786l-3.929-7.072h0a.77.77,0,0,1,.786-.786h.786l3.143,5.5,2.357-5.5H94.5v.786h0l-3.143,7.072A.77.77,0,0,1,90.573,32.572Zm11.786-5.5-.786-.786h0l-.786-.786H98.43l-.786.786h-.786v.786Zm-.786,3.143h.786l.786.786a.77.77,0,0,0-.786.786c-.786,0-1.572.786-3.143.786A5.957,5.957,0,0,1,96.073,31c-.786-.786-.786-1.572-.786-3.143a5.94,5.94,0,0,1,.786-3.143c.786-.786,2.357-.786,3.143-.786a7.084,7.084,0,0,1,3.929.786,2.743,2.743,0,0,0,.786,1.572v2.357H96.859v.786l.786.786A.77.77,0,0,1,98.43,31h2.357a.77.77,0,0,1,.786-.786Zm4.715-1.572c-.786-.786-.786-.786-1.572-.786h.786c-.786-.786-.786-.786-.786-1.572V25.5a.77.77,0,0,1,.786-.786c.786-.786.786-.786,1.572-.786h.786a6,6,0,0,1,3.929,1.572h0v.786l-.786.786v-.786h-.786a2.887,2.887,0,0,0-2.357-.786c-.786,0-.786,0-1.572.786h0v.786l3.929.786a.77.77,0,0,1,.786.786h0c.786,0,.786.786.786,1.572V31l-.786.786c-.786,0-.786.786-1.572.786h-1.572A5.957,5.957,0,0,1,104.716,31v-.786h0a.77.77,0,0,1,.786-.786h0l.786.786c.786.786.786.786,1.572.786a2.887,2.887,0,0,0,2.357-.786h0v-.786Zm7.072-4.715h0V20h1.572v3.929H116.5a.77.77,0,0,1,.786.786l-.786.786h-1.572v3.929A1.69,1.69,0,0,0,116.5,31h.786v1.572H116.5a2.878,2.878,0,0,1-3.143-3.143V25.5h-.786V23.929Z" transform="translate(-25.141 -8.999)"/>
      <path id="Path_109" data-name="Path 109" class="cls-3" d="M133.572,28.929V30.5l.786.786a.77.77,0,0,1,.786.786H137.5a.77.77,0,0,1,.786-.786l.786-.786V28.143l-.786-.786-.786-.786h-2.357l-.786.786-.786.786Zm3.143,4.715c-1.572,0-2.357,0-3.143-.786v3.929h0l-.786.786c-.786,0-.786,0-.786-.786h0V28.929a5.94,5.94,0,0,1,.786-3.143A7.084,7.084,0,0,1,136.715,25c.786,0,2.357,0,3.143.786a2.743,2.743,0,0,0,.786,1.572v1.572c0,1.572,0,2.357-.786,3.143s-1.572.786-1.572,1.572Zm9.429-7.072h-1.572l-.786.786a.77.77,0,0,1-.786.786V30.5a.77.77,0,0,1,.786.786.77.77,0,0,1,.786.786h2.357l.786-.786a.77.77,0,0,0,.786-.786V28.143a.77.77,0,0,0-.786-.786.77.77,0,0,0-.786-.786Zm2.357,6.286h0a.77.77,0,0,0-.786.786h-1.572A4.082,4.082,0,0,1,143,32.072c-1.572-.786-1.572-1.572-1.572-3.143,0-.786,0-1.572,1.572-3.143.786-.786,1.571-.786,3.143-.786.786,0,2.357,0,3.143.786.786,1.572,1.572,2.357,1.572,3.143v3.929a.77.77,0,0,0-.786.786h-.786Zm5.5,0-3.143-7.072h0V25h1.572v.786l2.357,4.715,2.357-4.715V25h1.572v.786h0l-4.715,11h0l-.786.786a.77.77,0,0,1-.786-.786h0V36Z" transform="translate(-39.067 -10.071)"/>
      <circle id="Ellipse_11" data-name="Ellipse 11" class="cls-3" cx="11.786" cy="11.786" r="11.786" transform="translate(15.929 7.072)"/>
      <path id="Path_110" data-name="Path 110" class="cls-4" d="M46.574,25.786l-.786.786.786-.786V25L45,25.786a.77.77,0,0,1-.786.786c-.786.786-2.357,3.143-2.357,4.715-.786,1.572-.786,3.143.786,3.929.786.786,8.643,1.572,10.215,0C56,32.072,50.5,25,48.145,25v.786L47.36,25h0A.77.77,0,0,0,46.574,25.786Z" transform="translate(-19.644 -10.071)"/>
      <path id="Path_111" data-name="Path 111" class="cls-4" d="M46.572,20.476c.786.786.786,0,.786.786h-.786v-.786h0v-.786c-.786,0-.786.786-1.572.786a1.69,1.69,0,0,0,1.572,1.572l.786.786h1.572v-.786h0v.786h0a.77.77,0,0,1,.786.786l.786-1.572c.786-.786,1.572-1.572,0-2.357v.786h-.786L50.5,18.9c-.786-.786-3.143,0-3.929,0Z" transform="translate(-20.427 -8.69)"/>
      <path id="Path_112" data-name="Path 112" class="cls-5" d="M48.286,21.357l-3.143-1.572.786.786h0v.786h0l2.357.786-.786.786h-.786v.786h0V24.5l-.786.786L53,30l.786.786h0v.786h0v.786H53v.786h0l-.786.786h-.786l-.786.786h-.786l-.786-.786H42l7.072,4.715c5.5-.786,10.215-5.5,10.215-11,0-.786-.786-1.572-.786-2.357L49.858,19h0l-.786,1.572h0l1.572.786h-.786v.786H48.286Z" transform="translate(-19.785 -8.785)"/>
      <path id="Path_113" data-name="Path 113" class="cls-2" d="M46.574,25.786l-.786.786.786-.786V25L45,25.786a.77.77,0,0,1-.786.786c-.786.786-2.357,3.143-2.357,4.715-.786,1.572-.786,3.143.786,3.929.786.786,8.643,1.572,10.215,0C56,32.072,50.5,25,48.145,25v.786L47.36,25h0A.77.77,0,0,0,46.574,25.786Z" transform="translate(-19.644 -10.071)"/>
      <g id="Group_45" data-name="Group 45" transform="translate(21.43 14.929)">
        <path id="Path_114" data-name="Path 114" class="cls-6" d="M46.5,25.786h0v.786h-.786v-.786H46.5V25h-.786a.77.77,0,0,1-.786.786v.786h-.786c0,.786-.786,1.572-1.572,2.357,0,.786-.786,1.572-.786,2.357a1.473,1.473,0,0,0,0,2.357c0,.786,0,1.572.786,1.572.786.786,3.143.786,5.5.786s3.929,0,4.715-.786c0-.786.786-.786.786-1.572s0-2.357-.786-3.143a5.957,5.957,0,0,0-1.572-3.143C50.429,26.572,48.858,25,48.072,25v.786s.786,0,0,.786h0v-.786L47.286,25H46.5Zm0,0h0V25h1.572v0h0a4.21,4.21,0,0,1,3.143,2.357A5.957,5.957,0,0,1,52.786,30.5c.786.786.786,2.357.786,3.143a2.743,2.743,0,0,1-.786,1.572C52,36,50.429,36,48.072,36s-4.715,0-5.5-.786c-.786,0-.786-.786-1.572-1.572a2.887,2.887,0,0,1,.786-2.357,2.887,2.887,0,0,1,.786-2.357c.786-.786,1.572-1.572,1.572-2.357h.786v-.786A.77.77,0,0,0,45.715,25H46.5v.786Zm-.786,0Zm2.357,0Z" transform="translate(-41 -25)"/>
      </g>
      <path id="Path_115" data-name="Path 115" class="cls-2" d="M46.572,20.476c.786.786.786,0,.786.786h-.786v-.786h0v-.786c-.786,0-.786.786-1.572.786a1.69,1.69,0,0,0,1.572,1.572l.786.786h1.572v-.786h0v.786h0a.77.77,0,0,1,.786.786l.786-1.572c.786-.786,1.572-1.572,0-2.357v.786h-.786L50.5,18.9c-.786-.786-3.143,0-3.929,0Z" transform="translate(-20.427 -8.69)"/>
      <path id="Path_116" data-name="Path 116" class="cls-6" d="M46.572,20.572h.786v.786h-.786v-.786h0v-.786c-.786,0-.786,0-.786.786H45c0,.786.786.786.786,1.572h.786l.786.786h1.572v-.786h0v.786h.786l.786-1.572h.786a2.434,2.434,0,0,0-.786-1.572v.786h-.786L50.5,19H46.572v1.572Zm.786.786h0Zm-.786-.786h0V19H50.5v.786h0a2.434,2.434,0,0,1,.786,1.572h0v.786h0l-1.572,1.572h0c-.786,0-.786,0-.786-.786h0v0h-.786a.77.77,0,0,0-.786.786h-.786V22.143h-.786C45,21.357,45,21.357,45,20.572a.77.77,0,0,0,.786-.786h.786v.786Z" transform="translate(-20.427 -8.785)"/>
      <path id="Path_117" data-name="Path 117" class="cls-7" d="M48,33.929a2.743,2.743,0,0,0,1.572.786v-.786l.786-1.572a.77.77,0,0,0,.786-.786h0a.77.77,0,0,1,.786.786h-.786a2.743,2.743,0,0,0-.786,1.572h1.572c.786,0,1.571-.786,1.571-2.357a.77.77,0,0,0-.786-.786A2.434,2.434,0,0,0,51.143,30c-.786.786-1.572.786-1.572,1.572h0Z" transform="translate(-21.07 -11.142)"/>
      <path id="Path_118" data-name="Path 118" class="cls-6" d="M48,33.929h.786c0,.786,0,.786.786.786v-.786h0l.786-1.572h0l.786-.786h.786v.786h0c-.786.786-.786,0-.786,0h0a.77.77,0,0,0-.786.786v.786h1.572c.786,0,.786,0,.786-.786.786,0,.786-.786.786-1.572h0l-.786-.786h0L51.929,30h-.786l-.786.786a.77.77,0,0,0-.786.786h0Zm.786,0H48l1.572-2.357h0c0-.786,0-.786.786-.786A.77.77,0,0,1,51.143,30h.786l.786.786H53.5v.786h0v1.572c-.786.786-.786.786-1.571.786H50.357v-.786a.77.77,0,0,1,.786-.786h.786v-.786h-.786c0,.786,0,.786-.786.786v.786l-.786.786h0v.786h0C48.786,34.715,48.786,34.715,48.786,33.929Z" transform="translate(-21.07 -11.142)"/>
      <path id="Path_119" data-name="Path 119" class="cls-6" d="M46.262,32.357V30.786h.786c-.786,0-.786-.786-1.572-.786a2.743,2.743,0,0,0-1.572.786c0,.786-.786,1.572,0,1.572,0,.786,0,1.572.786,1.572h2.357c0-.786.786-1.572,1.572-2.357h0v-.786L47.834,30h0l-1.572,1.572h0c0,.786,0,.786-.786,1.572-.786,0-.786-.786,0-1.572l.786.786Z" transform="translate(-20.118 -11.142)"/>
      <path id="Path_120" data-name="Path 120" class="cls-6" d="M46.143,32.357v-.786h0v-.786h.786c-.786,0-.786-.786-1.572-.786a.77.77,0,0,0-.786.786h-.786v2.357c0,.786,0,.786.786.786h2.357a2.743,2.743,0,0,1,.786-1.572c0-.786,0-.786.786-.786h0v-.786h0L47.715,30h0l-1.572,1.572h0v.786h0l-.786.786-.786-.786h0a.77.77,0,0,1,.786-.786h0a.77.77,0,0,1,.786.786Zm0-.786v.786h0l-.786-.786h0l-.786.786h1.572v-.786h0L47.715,30h0l.786.786h0v.786h0a.77.77,0,0,0-.786.786l-.786,1.572H44.572c-.786,0-.786,0-.786-.786L43,32.357v-.786c.786,0,.786,0,.786-.786h.786c0-.786,0-.786.786-.786s.786.786,1.572.786h0l-.786.786Z" transform="translate(-19.999 -11.142)"/>
    </g>
    <path id="Path_2401" data-name="Path 2401" class="cls-6" d="M189.34,2184.254v26.814H299.333v-26.814Z"/>
    <g id="Paymentku" transform="translate(-308.38 884.686)">
      <path id="Path_2394" data-name="Path 2394" class="cls-8" d="M506,1325.166V1311h6.312c2.936,0,4.33,1.321,4.33,3.964q0,4.294-5.945,5.285l-.367-2.349c2.422-.44,3.6-1.395,3.6-2.862a1.557,1.557,0,0,0-1.762-1.762h-3.6v11.89Z" transform="translate(0 -4.633)"/>
      <path id="_1" data-name="1" class="cls-8" d="M650,1369.193c0-2.055,1.468-3.156,4.477-3.156a10.476,10.476,0,0,1,2.129.22v-.807c0-.881-.661-1.395-1.982-1.395a18.892,18.892,0,0,0-3.817.514v-2.055a14.811,14.811,0,0,1,3.817-.514c3.083,0,4.624,1.174,4.624,3.45v6.973h-1.541l-.954-.954a4.841,4.841,0,0,1-2.936.954C651.248,1372.422,650,1371.321,650,1369.193Zm6.606-1.174a19.4,19.4,0,0,0-2.129-.147c-1.248,0-1.908.44-1.908,1.248,0,.954.587,1.395,1.615,1.395a3.713,3.713,0,0,0,2.422-.807Z" transform="translate(-133.431 -51.89)"/>
      <path id="_2" data-name="2" class="cls-8" d="M796.642,1311v2.055H794V1311Zm0,3.743v10.422H794v-10.422Z" transform="translate(-266.862 -4.633)"/>
      <path id="_3" data-name="3" class="cls-8" d="M849,1372.422V1362h1.982l.294,1.541a4.426,4.426,0,0,1,3.376-1.541,2.769,2.769,0,0,1,2.716,1.395,4.873,4.873,0,0,1,3.3-1.395c2.422,0,3.6,1.321,3.6,3.963v6.459H861.7v-6.532c0-1.174-.587-1.761-1.615-1.761a3.231,3.231,0,0,0-2.2,1.028v7.266h-2.642v-6.532c0-1.174-.514-1.761-1.468-1.761a3.378,3.378,0,0,0-2.2,1.028v7.266Z" transform="translate(-317.825 -51.89)"/>
      <path id="_4" data-name="4" class="cls-8" d="M1073.918,1362c3.156,0,4.7,1.615,4.7,4.844a7.981,7.981,0,0,1-.073,1.321h-6.9c0,1.468,1.1,2.2,3.229,2.2a22.913,22.913,0,0,0,3.156-.294v2.055a15.2,15.2,0,0,1-3.376.293c-3.743,0-5.652-1.761-5.652-5.358C1069,1363.688,1070.615,1362,1073.918,1362Zm-2.275,4.33h4.4v-.073c0-1.468-.661-2.2-2.129-2.2A2.083,2.083,0,0,0,1071.642,1366.331Z" transform="translate(-521.678 -51.89)"/>
      <path id="_5" data-name="5" class="cls-8" d="M1212,1372.422V1362h2.055l.294,1.541a4.658,4.658,0,0,1,3.376-1.541c2.5,0,3.743,1.248,3.743,3.817v6.606h-2.642v-6.606a1.512,1.512,0,0,0-1.688-1.688,3.912,3.912,0,0,0-2.5,1.028v7.266Z" transform="translate(-654.182 -51.89)"/>
      <path id="_6" data-name="6" class="cls-8" d="M1357,1339h1.982l.367,1.688h2.642v2.055h-2.349v4.844c0,.954.44,1.468,1.248,1.468h1.1v2.055h-2.349c-1.762,0-2.642-.954-2.642-2.789Z" transform="translate(-788.539 -30.578)"/>
      <path id="_7" data-name="7" class="cls-9" d="M1438,1320.532V1306h2.936v6.459l5.945-6.459h3.964l-5.5,5.652,5.725,8.881h-3.743l-4.037-6.826-2.349,2.422v4.4Z" transform="translate(-863.594 0)"/>
      <path id="_8" data-name="8" class="cls-9" d="M1618,1306h2.936v7.854a18.119,18.119,0,0,0,.073,2.422,2.743,2.743,0,0,0,.881,1.468,3.089,3.089,0,0,0,1.908.514,2.824,2.824,0,0,0,1.908-.514,1.712,1.712,0,0,0,.734-1.248,17.9,17.9,0,0,0,.147-2.5v-8h2.936v7.633a20.208,20.208,0,0,1-.22,3.67,3.592,3.592,0,0,1-.881,1.835,5.948,5.948,0,0,1-1.688,1.248,7.668,7.668,0,0,1-2.789.44,8.511,8.511,0,0,1-3.156-.514,3.778,3.778,0,0,1-1.688-1.248,3.9,3.9,0,0,1-.881-1.615,22.552,22.552,0,0,1-.22-3.67Z" transform="translate(-1030.382 0)"/>
    </g>
  </g>
</svg>
